5,145,-198.810480753543,0
10,218,-174.70528389543443,0
4,119,-135.21867570881858,0
9,187,-100.55310689382429,0
3,82,-77.13662994594739,0
2,37,-32.36983578088865,0
8,144,-30.992395960425313,0
1,-13,-7.116772405727318,0
7,87,27.548796409266913,0
6,8,68.87199102316731,0
57,296,138.20312865315577,0
37,19,139.35099517020856,0
